<?xml version="1.0" encoding="UTF-8"?>
<svg width="24px" height="24px" viewBox="0 0 24 24" version="1.1" xmlns="http://www.w3.org/2000/svg" xmlns:xlink="http://www.w3.org/1999/xlink">
    <title>Group 29</title>
    <g id="Element" stroke="none" stroke-width="1" fill="none" fill-rule="evenodd">
        <g id="Group-29">
            <g id="Group-27" transform="translate(2.000000, 2.000000)">
                <g id="icons8-auction" transform="translate(11.249690, 8.000000) scale(-1, -1) translate(-11.249690, -8.000000) translate(3.249690, 0.000000)" fill="#83909E" fill-rule="nonzero">
                    <path d="M9.39130435,0.00271756522 C9.12364139,0.00271756522 8.85597843,0.10326087 8.65353252,0.305706435 L5.87092383,3.08831513 C5.4660327,3.49320661 5.4660327,4.1589673 5.87092383,4.56385878 C6.18885878,4.88179339 6.66711965,4.94565217 7.05434783,4.76358713 L8.51902191,6.22826087 L4.691576,9.7826087 C4.63994574,9.75135861 4.57880452,9.73641322 4.51766296,9.73505426 C4.3994567,9.73641322 4.28804348,9.79755443 4.2241847,9.89809774 C4.16032626,10 4.15353252,10.1263586 4.20516313,10.2336957 L0.414402087,13.7554348 C-0.120923826,14.2513586 -0.137228174,15.1046195 0.379076174,15.6195652 L0.380434783,15.6195652 C0.895380522,16.1358696 1.74864139,16.1209238 2.24456522,15.5869565 L5.76630435,11.7948369 C5.90353252,11.8627718 6.06929357,11.8315217 6.17255443,11.7201089 C6.27717391,11.607337 6.29619583,11.4402174 6.21874991,11.308424 L9.77173913,7.48097843 L11.2364132,8.94565217 C11.0543478,9.33288035 11.1182066,9.81114122 11.4361412,10.1290762 C11.8410327,10.5339673 12.5067934,10.5339673 12.9116849,10.1290762 L15.6942936,7.34646748 C16.0991847,6.941576 16.0991847,6.2758153 15.6942936,5.87092383 C15.491848,5.66847826 15.2241847,5.566576 14.9565217,5.566576 C14.8029892,5.566576 14.6521739,5.60461948 14.5108696,5.67119583 L10.3288045,1.48913043 C10.5108696,1.10190226 10.4470108,0.623641391 10.1290762,0.305706435 C9.92663061,0.10326087 9.6589673,0.00271756522 9.39130435,0.00271756522 Z M9.39130435,0.692934957 C9.47961948,0.692934957 9.56793496,0.72826087 9.63722817,0.797554435 C9.7758153,0.936141217 9.7758153,1.1508153 9.63722817,1.28940209 L6.85461948,4.07201078 C6.7160327,4.21059791 6.50135861,4.21059791 6.36277183,4.07201078 C6.2241847,3.933424 6.2241847,3.71874991 6.36277183,3.58016313 L9.14538052,0.797554435 C9.21467409,0.72826087 9.30298922,0.692934957 9.39130435,0.692934957 Z M9.88315235,2.02717391 L10.6385871,2.7826087 L8.34782609,5.07336974 L7.5923913,4.31793496 L9.88315235,2.02717391 Z M11.1304348,3.2744567 L12.7255437,4.86956522 L10.4347826,7.16032626 L8.83967409,5.56521739 L11.1304348,3.2744567 Z M13.2173913,5.36141322 L13.9728261,6.116848 L11.6820654,8.4076087 L10.9266306,7.65217391 L13.2173913,5.36141322 Z M14.9565217,6.25951096 C15.0448369,6.25951096 15.1331523,6.29347826 15.2024456,6.36277183 C15.3410327,6.50135861 15.3410327,6.7160327 15.2024456,6.85461948 L12.4198369,9.63722817 C12.2812501,9.7758153 12.066576,9.7758153 11.9279892,9.63722817 C11.7894021,9.49864139 11.7894021,9.2839673 11.9279892,9.14538052 L14.7105979,6.36277183 C14.7798915,6.29347826 14.8682066,6.25951096 14.9565217,6.25951096 Z M8.97826087,6.75 L9.25,7.02173913 L5.73369565,10.8070654 L5.19293496,10.2663043 L8.97826087,6.75 Z M4.683424,10.7391304 L5.26086957,11.316576 L1.73641322,15.1127718 C1.50135861,15.365489 1.11548904,15.3722828 0.872282783,15.1290762 C0.627717565,14.884511 0.634510957,14.4986414 0.887228174,14.2649457 L4.683424,10.7391304 Z" id="Shape"></path>
                </g>
                <path d="M8.74199,0.789 L5.00299,0.789 C1.92799,0.789 -3.55271368e-14,2.966 -3.55271368e-14,6.048 L-3.55271368e-14,14.362 C-3.55271368e-14,17.444 1.91899,19.621 5.00299,19.621 L13.82699,19.621 C16.91199,19.621 18.83099,17.444 18.83099,14.362 L18.83099,10.334" id="Path-Copy-6" stroke="#83909E" stroke-width="1.5" stroke-linecap="round" stroke-linejoin="round"></path>
            </g>
            <rect id="Rectangle" x="0" y="0" width="24" height="24"></rect>
        </g>
    </g>
</svg>