<?xml version="1.0" encoding="utf-8"?>
<!-- Generator: Adobe Illustrator 23.0.6, SVG Export Plug-In . SVG Version: 6.00 Build 0)  -->
<svg version="1.1" id="Layer_1" xmlns="http://www.w3.org/2000/svg" xmlns:xlink="http://www.w3.org/1999/xlink" x="0px" y="0px"
	 viewBox="0 0 24 24" style="enable-background:new 0 0 24 24;" xml:space="preserve">
<style type="text/css">
	.st0{fill:#0046FF;}
</style>
<title>ic_games_active</title>
<g id="CMS">
	<g id="Marketplace-Detail-Copy" transform="translate(-260.000000, -593.000000)">
		<g id="game-copy" transform="translate(260.000000, 593.000000)">
			<g id="game" transform="translate(1.000000, 3.000000)">
				<path id="Shape" class="st0" d="M16.1,0H5.9C2.6,0,0,2.7,0,5.9v6.2C0,15.3,2.6,18,5.9,18h10.2c3.2,0,5.9-2.7,5.9-5.9V5.9
					C22,2.7,19.4,0,16.1,0z M13.5,7c0-0.5,0.4-1,1-1s1,0.5,1,1s-0.4,1-1,1S13.5,7.6,13.5,7L13.5,7z M9.1,11.1
					c-0.2,0.1-0.3,0.2-0.5,0.2c-0.2,0-0.4-0.1-0.5-0.2l-1-1l-1,1c-0.2,0.1-0.3,0.2-0.5,0.2S5.1,11.2,5,11c-0.3-0.3-0.3-0.8,0-1.1
					l1-1L5,8C4.7,7.7,4.7,7.2,5,7s0.8-0.3,1.1,0l1,1l1-1c0.3-0.3,0.8-0.3,1.1,0s0.3,0.8,0,1.1l-1,1l1,1C9.4,10.3,9.4,10.8,9.1,11.1z
					 M12.5,10c-0.6,0-1-0.4-1-1s0.4-1,1-1h0c0.6,0,1,0.5,1,1S13.1,10,12.5,10z M14.5,12c-0.6,0-1-0.4-1-1v0c0-0.6,0.4-1,1-1
					s1,0.4,1,1S15.1,12,14.5,12z M16.5,10c-0.5,0-1-0.4-1-1s0.4-1,1-1h0c0.6,0,1,0.5,1,1S17,10,16.5,10z"/>
			</g>
		</g>
	</g>
</g>
</svg>
