<?xml version="1.0" encoding="UTF-8"?>
<svg width="24px" height="24px" viewBox="0 0 24 24" version="1.1" xmlns="http://www.w3.org/2000/svg" xmlns:xlink="http://www.w3.org/1999/xlink">
    <title>ic_games</title>
    <g id="CMS" stroke="none" stroke-width="1" fill="none" fill-rule="evenodd">
        <g id="Marketplace-Detail-Copy" transform="translate(-260.000000, -559.000000)" stroke="#83909E" stroke-width="1.5">
            <g id="game" transform="translate(260.000000, 559.000000)">
                <line x1="9.57002" y1="10.46" x2="6.52002" y2="13.51" id="Path" stroke-linecap="round" stroke-linejoin="round"></line>
                <line x1="6.55005" y1="10.49" x2="9.60005" y2="13.54" id="Path" stroke-linecap="round" stroke-linejoin="round"></line>
                <line x1="13.53" y1="12" x2="13.54" y2="12" id="Path" stroke-linecap="round" stroke-linejoin="round"></line>
                <line x1="17.47" y1="12" x2="17.48" y2="12" id="Path" stroke-linecap="round" stroke-linejoin="round"></line>
                <line x1="15.5" y1="13.98" x2="15.5" y2="13.96" id="Path" stroke-linecap="round" stroke-linejoin="round"></line>
                <line x1="15.5" y1="10.04" x2="15.5" y2="10.02" id="Path" stroke-linecap="round" stroke-linejoin="round"></line>
                <path d="M15.3,3.75 C17.7804528,3.75 19.5531954,4.19671381 20.6790412,5.33596257 C21.8074987,6.47785413 22.25,8.27507967 22.25,10.7916667 L22.25,10.7916667 L22.25,13.0178571 C22.25,15.5344441 21.8074987,17.3316697 20.6790412,18.4735612 C19.5531954,19.61281 17.7804528,20.0595238 15.3,20.0595238 L15.3,20.0595238 L8.7,20.0595238 C6.21954721,20.0595238 4.44680463,19.61281 3.32095879,18.4735612 C2.19250126,17.3316697 1.75,15.5344441 1.75,13.0178571 L1.75,13.0178571 L1.75,10.7916667 C1.75,8.27507967 2.19250126,6.47785413 3.32095879,5.33596257 C4.44680463,4.19671381 6.21954721,3.75 8.7,3.75 L8.7,3.75 Z" id="Path"></path>
            </g>
        </g>
    </g>
</svg>