<?xml version="1.0" encoding="UTF-8"?>
<svg width="24px" height="24px" viewBox="0 0 24 24" version="1.1" xmlns="http://www.w3.org/2000/svg" xmlns:xlink="http://www.w3.org/1999/xlink">
    <title>ic_history</title>
    <g id="CMS" stroke="none" stroke-width="1" fill="none" fill-rule="evenodd">
        <g id="Marketplace-Detail-Copy" transform="translate(-337.000000, -537.000000)" stroke="#83909E" stroke-width="1.5">
            <g id="history" transform="translate(337.000000, 537.000000)">
                <g id="activity" transform="translate(2.000000, 2.000000)">
                    <path d="M13,0.75 C15.2321429,0.75 16.8306692,1.14132941 17.8446699,2.15533009 C18.8586706,3.16933077 19.25,4.76785714 19.25,7 L19.25,7 L19.25,13 C19.25,15.2321429 18.8586706,16.8306692 17.8446699,17.8446699 C16.8306692,18.8586706 15.2321429,19.25 13,19.25 L13,19.25 L7,19.25 C4.76785714,19.25 3.16933077,18.8586706 2.15533009,17.8446699 C1.14132941,16.8306692 0.75,15.2321429 0.75,13 L0.75,13 L0.75,7 C0.75,4.76785714 1.14132941,3.16933077 2.15533009,2.15533009 C3.16933077,1.14132941 4.76785714,0.75 7,0.75 L7,0.75 Z" id="Path"></path>
                    <path d="M5.33008,12.49 L7.71008,9.4 C8.0501,8.96 8.6801,8.88 9.1201,9.22 L10.9501,10.66 C11.3901,11 12.0201,10.92 12.3601,10.49 L14.6701,7.51001" id="Path" stroke-linecap="round" stroke-linejoin="round"></path>
                </g>
            </g>
        </g>
    </g>
</svg>