<?xml version="1.0" encoding="UTF-8"?>
<svg width="32px" height="32px" viewBox="0 0 32 32" version="1.1" xmlns="http://www.w3.org/2000/svg" xmlns:xlink="http://www.w3.org/1999/xlink">
    <title>icons8-campfire 4</title>
    <g id="Element" stroke="none" stroke-width="1" fill="none" fill-rule="evenodd">
        <g id="icons8-campfire-4">
            <rect id="Rectangle" x="0" y="0" width="32" height="32"></rect>
            <g id="icons8-campfire" transform="translate(4.000000, 2.000000)" fill="#0046FF" fill-rule="nonzero" stroke="#0046FF" stroke-width="2">
                <path d="M12.24,0 C12.24,0 10.9274995,7.90865428 8.4,10.2846154 C8.12250048,7.52500086 5.52,5.16923077 5.52,5.16923077 C4.17,10.2105765 0.72,13.3067303 0.72,17.6076923 C0.72,22.3596162 4.31250048,26.3576923 9.18,27.5692308 C8.70749952,26.7144226 8.4,25.650962 8.4,24.5 C8.4,19.5125004 12.24,15.5076923 12.24,15.5076923 C12.24,15.5076923 16.08,19.5125004 16.08,24.5 C16.08,25.650962 15.7725005,26.7076923 15.3,27.5692308 C20.1674995,26.3576923 23.76,22.3596162 23.76,17.6076923 C23.76,14.0538462 22.3425005,10.9980778 20.7,8.61538462 C20.7,8.61538462 19.9274995,13.199038 17.52,15.0230769 C19.8074995,6.63653932 12.24,0 12.24,0 Z" id="Shape"></path>
            </g>
        </g>
    </g>
</svg>