<?xml version="1.0" encoding="UTF-8"?>
<svg width="64px" height="64px" viewBox="0 0 64 64" version="1.1" xmlns="http://www.w3.org/2000/svg" xmlns:xlink="http://www.w3.org/1999/xlink">
    <title>is_notification</title>
    <g id="Element" stroke="none" stroke-width="1" fill="none" fill-rule="evenodd">
        <g id="Group-22" transform="translate(-96.000000, -880.000000)" fill="#007AFF" opacity="0.100000001">
            <path d="M128,944 C159.753112,944 160,929.673112 160,912 C160,894.326888 159.753112,880 128,880 C96.246888,880 96,894.326888 96,912 C96,929.673112 96.246888,944 128,944 Z" id="a-copy-50"></path>
        </g>
        <g id="notification" transform="translate(20.000000, 17.000000)" fill="#007AFF" fill-rule="nonzero">
            <path d="M23.00985,18.735 L21.50985,16.245 C21.19485,15.69 20.90985,14.64 20.90985,14.025 L20.90985,10.23 C20.90985,6.705 18.83985,3.66 15.85485,2.235 C15.07485,0.855 13.63485,0 11.98485,0 C10.34985,0 8.87991,0.885 8.09991,2.28 C5.17491,3.735 3.14991,6.75 3.14991,10.23 L3.14991,14.025 C3.14991,14.64 2.86491,15.69 2.54991,16.23 L1.03491,18.735 C0.43491,19.74 0.29991,20.85 0.67491,21.87 C1.03491,22.875 1.88991,23.655 2.99991,24.03 C5.90991,25.02 8.96991,25.5 12.02985,25.5 C15.08985,25.5 18.14985,25.02 21.05985,24.045 C22.10985,23.7 22.91985,22.905 23.30985,21.87 C23.69985,20.835 23.59485,19.695 23.00985,18.735 Z" id="Path"></path>
            <path d="M16.24455,27.015 C15.61455,28.755 13.94955,30 11.99955,30 C10.81455,30 9.64455,29.52 8.819535,28.665 C8.339535,28.215 7.979535,27.615 7.769535,27 C7.964535,27.03 8.159535,27.045 8.369535,27.075 C8.714535,27.12 9.07455,27.165 9.43455,27.195 C10.28955,27.27 11.15955,27.315 12.02955,27.315 C12.88455,27.315 13.73955,27.27 14.57955,27.195 C14.89455,27.165 15.20955,27.15 15.50955,27.105 C15.74955,27.075 15.98955,27.045 16.24455,27.015 Z" id="Path" opacity="0.400000006"></path>
        </g>
    </g>
</svg>