<?xml version="1.0" encoding="UTF-8"?>
<svg width="64px" height="64px" viewBox="0 0 64 64" version="1.1" xmlns="http://www.w3.org/2000/svg" xmlns:xlink="http://www.w3.org/1999/xlink">
    <title>is_receive</title>
    <g id="Element" stroke="none" stroke-width="1" fill="none" fill-rule="evenodd">
        <g id="Group-22" transform="translate(-192.000000, -704.000000)">
            <path d="M224,768 C255.753112,768 256,753.673112 256,736 C256,718.326888 255.753112,704 224,704 C192.246888,704 192,718.326888 192,736 C192,753.673112 192.246888,768 224,768 Z" id="a-copy-45" fill="#32D74B" opacity="0.100000001"></path>
            <g id="ic_download" transform="translate(206.000000, 715.000000)">
                <rect id="Rectangle" x="0" y="0" width="36" height="36"></rect>
                <g id="download" transform="translate(3.000000, 3.000000)" fill="#32D74B" fill-rule="nonzero">
                    <path d="M23.331,7.944285 C27.0075,7.944285 30,11.03397 30,14.8314 L30,22.37985 C30,26.1681 27.015,29.25 23.346,29.25 L6.672,29.25 C2.994,29.25 0,26.1618 0,22.3644 L0,14.81595 C0,11.027775 2.9865,7.944285 6.657,7.944285 L8.067,7.944285 L23.331,7.944285 Z" id="Path" opacity="0.4"></path>
                    <path d="M15.8193,21.0561 L20.1828,16.60425 C20.6328,16.14405 20.6328,15.40365 20.1798,14.9451 C19.7268,14.48805 18.9963,14.48955 18.5463,14.9481 L16.1568,17.38575 L16.1568,1.92315 C16.1568,1.27563 15.6393,0.75 15.0003,0.75 C14.3628,0.75 13.8468,1.27563 13.8468,1.92315 L13.8468,17.38575 L11.45577,14.9481 C11.00577,14.48955 10.27527,14.48805 9.82227,14.9451 C9.59577,15.1752 9.48177,15.4752 9.48177,15.777 C9.48177,16.0755 9.59577,16.37565 9.81927,16.60425 L14.1828,21.0561 C14.4003,21.27705 14.6943,21.402 15.0003,21.402 C15.3078,21.402 15.6018,21.27705 15.8193,21.0561 Z" id="Path"></path>
                </g>
            </g>
        </g>
    </g>
</svg>