<svg width="24" height="24" viewBox="0 0 24 24" fill="none" xmlns="http://www.w3.org/2000/svg">
<rect x="3" y="8" width="13" height="13" rx="2" stroke="#838A97" stroke-width="1.5" stroke-linecap="round" stroke-linejoin="round"/>
<path d="M19 16C20.1046 16 21 15.1046 21 14L21 5C21 3.89543 20.1046 3 19 3H10C8.89543 3 8 3.89543 8 5" stroke="#838A97" stroke-width="1.5" stroke-linecap="round" stroke-linejoin="round"/>
</svg>
