<svg width="24" height="24" viewBox="0 0 24 24" fill="none" xmlns="http://www.w3.org/2000/svg">
<path d="M11.998 7C10.8935 7 9.99805 6.10457 9.99805 5C9.99805 3.89543 10.8935 3 11.998 3C13.1026 3 13.998 3.89543 13.998 5C13.998 6.10457 13.1026 7 11.998 7Z" fill="#1C274C"/>
<path d="M11.998 14C10.8935 14 9.99805 13.1046 9.99805 12C9.99805 10.8954 10.8935 10 11.998 10C13.1026 10 13.998 10.8954 13.998 12C13.998 13.1046 13.1026 14 11.998 14Z" fill="#1C274C"/>
<path d="M11.998 21C10.8935 21 9.99805 20.1046 9.99805 19C9.99805 17.8954 10.8935 17 11.998 17C13.1026 17 13.998 17.8954 13.998 19C13.998 20.1046 13.1026 21 11.998 21Z" fill="#1C274C"/>
</svg>
