<?xml version="1.0" encoding="utf-8"?>
<!-- Generator: Adobe Illustrator 23.0.6, SVG Export Plug-In . SVG Version: 6.00 Build 0)  -->
<svg version="1.1" id="Layer_1" xmlns="http://www.w3.org/2000/svg" xmlns:xlink="http://www.w3.org/1999/xlink" x="0px" y="0px"
	 viewBox="0 0 30 30" style="enable-background:new 0 0 30 30;" xml:space="preserve">
<style type="text/css">
	.st0{fill-rule:evenodd;clip-rule:evenodd;fill:#0046FF;}
	.st1{fill:none;stroke:#0046FF;stroke-width:2;}
</style>
<title>nav_profile</title>
<g id="CMS">
	<g id="Marketplace-Detail" transform="translate(-1284.000000, -45.000000)">
		<g id="Group-15" transform="translate(1284.000000, 45.000000)">
			<g id="Group-8" transform="translate(3.000000, 3.000000)">
				<g id="profile" transform="translate(4.000000, 4.000000)">
					<path id="Shape" class="st0" d="M13.3,5.3c0,2.9-2.4,5.3-5.3,5.3c-2.9,0-5.3-2.4-5.3-5.3C2.7,2.4,5.1,0,8,0
						C10.9,0,13.3,2.4,13.3,5.3z M8,20c-4.3,0-8-0.7-8-3.4c0-2.7,3.7-3.4,8-3.4c4.3,0,8,0.7,8,3.4C16,19.3,12.3,20,8,20z"/>
				</g>
				<circle id="Oval" class="st1" cx="12" cy="12" r="12"/>
			</g>
		</g>
	</g>
</g>
</svg>
